{
	"pattern" : [
		"/usr/sbin/nologin",
		"/usr/sbin",
		"/home/syslog",
		"root:/root:/bin",
		"root:/root",
		"Configuration File (php.ini) Path",
		"PHP Version",
		"Vulnerable",
		"vulnerable",
		"You have sucessfully read the content of this file"
	]
}